graph network {
    fontsize="50pt";
    label = "Bridge Network";
    imagepath = "images/network/";
    nodesep = 3;
    ranksep = 2;
    rankdir=LR;
    labeldistance=2.0
  edge [
    minlen = 2,
    penwidth = 5,
    fontsize="30pt",
    ];

  node [
    shape=none, 
    imagepos=tc,
    imagescale=both,
    height="3px",
    width="3px",
    labelloc=b,
    fontsize="30pt",
  ];


  sw1 [ label="2960-24TT\nSwitch0" image="switch.png"];
  sw2 [ label="2960-24TT\nSwitch1" image="switch.png"];
  rt1 [ label="Router-PT\nRouter 2" image="router.png" xlp="50!,0!"];
  rt2 [ label="Router-PT\nRouter 3" image="router.png"];
  pc1 [ label="Pc 1" image="pc.png"
   xlabel="adresse ip: 172.168.1.110/16\npasserelle: 172.168.1.1" ];
  pc2 [ label="Pc 2" image="pc.png"
   xlabel="adresse ip: 192.168.1.110/24\npasserelle: 192.168.1.1" ];


  sw1 -- rt1 [label="interface fa0/0 172.168.1.1" ];
  rt1:e -- rt2:s [color = red
        headlabel="interface serial 2/0\nadresse ip 10.0.0.1"
        taillabel="interface serial 2/0\nadresse ip 10.0.0.1"];
  rt2 -- sw2 [label="interface fa0/0 192.168.1.1" ];
  pc1 -- sw1;
  pc1 -- rt1:s [color = turquoise
    label= "Route R1\nip route 192.168.1.0/24 10.0.0.1"];
  pc2 -- sw2;
  pc2 -- rt2 [color = turquoise
    label= "Route R2\nip route 172.168.1.0/16 10.0.0.1"];
    
}
